…
Further to avoid any confusion remove the former dataframe.

    rm(mydf1)

Next we will utilise gather function tidyr package to clean the messy
data.

    tidy_mydf <- gather(mydf, Year, Deaths, -Cause)
    dim(tidy_mydf)

    ## [1] 44  3

    tidy_mydf

    ## # A tibble: 44 × 3
    ##               Cause  Year Deaths
    ##              <fctr> <chr>  <int>
    ## 1              AIDS X2010  13656
    ## 2           Anaemia X2010   7985
    ## 3            Cancer X2010  11995
    ## 4     Heart disease X2010   4634
    ## 5           Malaria X2010  30505
    ## 6        Menengitis X2010   4371
    ## 7   Other accidents X2010   3757
    ## 8      Other causes X2010  70389
    ## 9         Pneumonia X2010  22204
    ## 10 Road traffic acc X2010   3892
    ## # ... with 34 more rows
…
